…
where `odc_user` is the address provided during the registration
process, and `odc_key` is the one included in the confirmation e-mail.

## 🔍 General Search

The `search_domestic` function allows to search for certificates using
various filters:

``` r
energizer::odc_search_data(
  address = "liverpool road",
  type = "domestic"
)
#> # A tibble: 25 × 93
#>    low_energy_fixed_light_count address                 uprn_source floor_height
#>    <chr>                        <chr>                   <chr>       <chr>       
#>  1 ""                           329 Old Liverpool Road  Energy Ass… 2.7         
#>  2 ""                           93 Liverpool Road       Energy Ass… 2.64        
#>  3 ""                           44 Liverpool Road       Energy Ass… 2.4         
#>  4 ""                           2a Crown Buildings, Li… Energy Ass… 2.42        
#>  5 ""                           22 Liverpool Road       Energy Ass… 2.6         
#>  6 ""                           5 Liverpool Road        Energy Ass… 2.16        
#>  7 ""                           60 Liverpool Road, Aug… Energy Ass… 2.54        
#>  8 ""                           546 Liverpool Road, Ha… Energy Ass… 2.46        
#>  9 ""                           104 Liverpool Road, Gr… Energy Ass… 2.6         
#> 10 ""                           Flat, 575 Liverpool Ro… Energy Ass… 2.52        
#> # ℹ 15 more rows
#> # ℹ 89 more variables: heating_cost_potential <chr>,
#> #   unheated_corridor_length <chr>, hot_water_cost_potential <chr>,
#> #   construction_age_band <chr>, potential_energy_rating <chr>,
#> #   mainheat_energy_eff <chr>, windows_env_eff <chr>,
#> #   lighting_energy_eff <chr>, environment_impact_potential <chr>,
#> #   glazed_type <chr>, heating_cost_current <chr>, address3 <chr>, …
```
…
## 📃 Paginated Search

By default, only the first page of results is returned. Searching with
pagination can be done by setting `paginate = "all"`:

``` r
energizer::odc_search_data(
    address = "liverpool road",
    type = "domestic",
    paginate = "all", 
    size = 5000
)
#> # A tibble: 17,768 × 93
#>    low_energy_fixed_light_count address                 uprn_source floor_height
#>    <chr>                        <chr>                   <chr>       <chr>       
#>  1 ""                           329 Old Liverpool Road  Energy Ass… 2.7         
#>  2 ""                           93 Liverpool Road       Energy Ass… 2.64        
#>  3 ""                           44 Liverpool Road       Energy Ass… 2.4         
#>  4 ""                           2a Crown Buildings, Li… Energy Ass… 2.42        
#>  5 ""                           22 Liverpool Road       Energy Ass… 2.6         
#>  6 ""                           5 Liverpool Road        Energy Ass… 2.16        
#>  7 ""                           60 Liverpool Road, Aug… Energy Ass… 2.54        
#>  8 ""                           546 Liverpool Road, Ha… Energy Ass… 2.46        
#>  9 ""                           104 Liverpool Road, Gr… Energy Ass… 2.6         
#> 10 ""                           Flat, 575 Liverpool Ro… Energy Ass… 2.52        
#> # ℹ 17,758 more rows
#> # ℹ 89 more variables: heating_cost_potential <chr>,
#> #   unheated_corridor_length <chr>, hot_water_cost_potential <chr>,
#> #   construction_age_band <chr>, potential_energy_rating <chr>,
#> #   mainheat_energy_eff <chr>, windows_env_eff <chr>,
#> #   lighting_energy_eff <chr>, environment_impact_potential <chr>,
#> #   glazed_type <chr>, heating_cost_current <chr>, address3 <chr>, …
```

Manual control over the pagination can be achived with:

``` r
energizer::odc_search_data(
    address = "liverpool road",
    type = "domestic",
    paginate = "manual", 
    size = 5000
)
#> # A tibble: 5,000 × 93
#>    low_energy_fixed_light_count address                 uprn_source floor_height
#>    <chr>                        <chr>                   <chr>       <chr>       
#>  1 ""                           329 Old Liverpool Road  Energy Ass… 2.7         
#>  2 ""                           93 Liverpool Road       Energy Ass… 2.64        
#>  3 ""                           44 Liverpool Road       Energy Ass… 2.4         
#>  4 ""                           2a Crown Buildings, Li… Energy Ass… 2.42        
#>  5 ""                           22 Liverpool Road       Energy Ass… 2.6         
#>  6 ""                           5 Liverpool Road        Energy Ass… 2.16        
#>  7 ""                           60 Liverpool Road, Aug… Energy Ass… 2.54        
#>  8 ""                           546 Liverpool Road, Ha… Energy Ass… 2.46        
#>  9 ""                           104 Liverpool Road, Gr… Energy Ass… 2.6         
#> 10 ""                           Flat, 575 Liverpool Ro… Energy Ass… 2.52        
#> # ℹ 4,990 more rows
#> # ℹ 89 more variables: heating_cost_potential <chr>,
#> #   unheated_corridor_length <chr>, hot_water_cost_potential <chr>,
#> #   construction_age_band <chr>, potential_energy_rating <chr>,
#> #   mainheat_energy_eff <chr>, windows_env_eff <chr>,
#> #   lighting_energy_eff <chr>, environment_impact_potential <chr>,
#> #   glazed_type <chr>, heating_cost_current <chr>, address3 <chr>, …
```
…
